# Blender v2.79 (sub 0) OBJ File: 'Frame.blend'
# www.blender.org
mtllib BlockFrame.mtl
o Frame_Cube
v -1.000000 -0.140007 1.000000
v -1.000000 0.140007 1.000000
v -1.000000 -0.140007 -1.000000
v -1.000000 0.140007 -1.000000
v 1.000000 -0.140007 1.000000
v 1.000000 0.140007 1.000000
v 1.000000 -0.140007 -1.000000
v 1.000000 0.140007 -1.000000
v 1.000000 0.140007 0.529196
v 0.945262 0.140007 0.631604
v 0.945262 -0.140007 0.631604
v -1.000000 0.140007 0.529196
v -0.945262 0.140007 0.631603
v -1.000000 -0.140007 0.529196
v -0.945262 -0.140007 0.631603
v -0.803880 0.140007 0.803879
v -0.803880 -0.140007 0.803879
v 0.631604 0.140007 -0.945262
v 0.631604 -0.140007 -0.945262
v 0.529196 0.140007 -1.000000
v 1.000000 0.140007 -0.529196
v -0.803878 0.140007 -0.803880
v -0.803878 -0.140007 -0.803880
v -0.631603 0.140007 -0.945263
v -0.631603 -0.140007 -0.945263
v -0.945261 0.140007 -0.631605
v -0.945261 -0.140007 -0.631605
v -0.529196 -0.140007 -1.000000
v 0.631604 0.140007 0.945262
v 0.631604 -0.140007 0.945262
v 0.803879 0.140007 0.803879
v 0.803879 -0.140007 0.803879
v 1.000000 -0.140007 0.529196
v -0.529196 -0.140007 1.000000
v -0.529196 0.140007 -1.000000
v -0.631604 0.140007 0.945261
v -0.529196 0.140007 1.000000
v -0.631604 -0.140007 0.945262
v 0.803879 0.140007 -0.803879
v 0.803879 -0.140007 -0.803879
v 0.529196 -0.140007 1.000000
v 0.529196 0.140007 1.000000
v 0.945262 0.140007 -0.631604
v 0.945262 -0.140007 -0.631604
v 1.000000 -0.140007 -0.529196
v -1.000000 -0.140007 -0.529196
v -1.000000 0.140007 -0.529196
v 0.529196 -0.140007 -1.000000
vt 0.000000 0.500000
vt 0.000000 0.000000
vt 0.125000 0.000000
vt 0.125000 0.500000
vt 0.250000 0.500000
vt 0.250000 0.000000
vt 0.375000 0.000000
vt 0.375000 0.500000
vt 0.875000 0.000000
vt 0.875000 0.500000
vt 0.750000 0.500000
vt 0.750000 0.000000
vt 0.625000 0.500000
vt 0.625000 0.000000
vt 0.750000 0.000000
vt 0.750000 0.500000
vt 0.583434 0.583227
vt 0.671823 0.500000
vt 0.662873 0.527779
vt 0.657074 0.583227
vt 0.662873 0.638674
vt 0.671823 0.666454
vt 0.583434 0.749681
vt 0.671823 0.666454
vt 0.662873 0.694234
vt 0.657074 0.749681
vt 0.662873 0.805129
vt 0.671823 0.832908
vt 0.264528 1.000000
vt 0.264528 0.500000
vt 0.291718 0.500000
vt 0.291718 1.000000
vt 0.173049 0.500000
vt 0.173049 1.000000
vt 0.145859 1.000000
vt 0.145859 0.500000
vt 0.218788 1.000000
vt 0.218788 0.500000
vt 0.556245 0.500000
vt 0.556245 1.000000
vt 0.510505 1.000000
vt 0.510505 0.500000
vt 0.464766 1.000000
vt 0.464765 0.500000
vt 0.510505 0.500000
vt 0.510505 1.000000
vt 0.318907 0.500000
vt 0.318907 1.000000
vt 0.291718 1.000000
vt 0.291718 0.500000
vt 0.625000 0.000000
vt 0.625000 0.500000
vt 0.500000 0.500000
vt 0.500000 0.000000
vt 0.000000 1.000000
vt 0.000000 0.500000
vt 0.045740 0.500000
vt 0.045740 1.000000
vt 0.437576 1.000000
vt 0.437576 0.500000
vt 0.364647 0.500000
vt 0.364647 1.000000
vt 0.848599 0.617701
vt 0.839650 0.645481
vt 0.833850 0.700928
vt 0.839650 0.756375
vt 0.848599 0.784155
vt 0.760211 0.700928
vt 0.671823 0.617701
vt 0.699013 0.604016
vt 0.744752 0.568671
vt 0.782290 0.525602
vt 0.796823 0.500000
vt 0.796823 0.617701
vt 0.760211 0.617701
vt 0.751262 0.645481
vt 0.745462 0.700928
vt 0.751262 0.756376
vt 0.760211 0.784155
vt 0.671823 0.700928
vt 0.936988 0.617701
vt 0.928038 0.645480
vt 0.922238 0.700928
vt 0.928038 0.756375
vt 0.936988 0.784155
vt 0.848599 0.700928
vt 0.760211 0.784155
vt 0.751262 0.811935
vt 0.745462 0.867382
vt 0.751262 0.922830
vt 0.760211 0.950609
vt 0.671823 0.867382
vt 0.848599 0.784155
vt 0.839650 0.811935
vt 0.833850 0.867382
vt 0.839650 0.922830
vt 0.848599 0.950609
vt 0.760211 0.867382
vt 0.145859 0.500000
vt 0.145859 1.000000
vt 0.100119 1.000000
vt 0.100119 0.500000
vt 0.125000 0.500000
vt 0.125000 0.000000
vt 0.375000 0.500000
vt 0.375000 0.000000
vt 0.500000 0.000000
vt 0.500000 0.500000
vt 0.072930 1.000000
vt 0.072930 0.500000
vt 0.583434 0.500000
vt 0.583434 1.000000
vt 1.000000 0.000000
vt 1.000000 0.500000
vt 0.072930 0.500000
vt 0.072930 1.000000
vt 0.391836 0.500000
vt 0.391837 1.000000
vt 0.364647 1.000000
vt 0.364647 0.500000
vt 0.437576 0.500000
vt 0.437576 1.000000
vn -1.0000 0.0000 0.0000
vn 0.0000 0.0000 -1.0000
vn 1.0000 0.0000 0.0000
vn 0.0000 0.0000 1.0000
vn 0.0000 -1.0000 0.0000
vn 0.0000 1.0000 -0.0000
vn -0.4714 0.0000 0.8819
vn -0.8819 0.0000 0.4714
vn -0.6344 -0.0000 0.7730
vn 0.7730 0.0000 -0.6344
vn 0.6344 0.0000 0.7730
vn -0.8819 -0.0000 -0.4714
vn 0.7730 0.0000 0.6344
vn 0.4714 0.0000 0.8819
vn -0.7730 0.0000 -0.6344
vn 0.6344 -0.0000 -0.7730
vn 0.4714 0.0000 -0.8819
vn 0.8819 0.0000 -0.4714
vn 0.8819 0.0000 0.4714
vn -0.4714 0.0000 -0.8819
vn -0.6344 0.0000 -0.7730
vn -0.7730 0.0000 0.6344
usemtl BlockFrameMaterialCycle
s off
f 1/1/1 2/2/1 12/3/1 14/4/1
f 3/5/2 4/6/2 35/7/2 28/8/2
f 7/9/3 8/10/3 21/11/3 45/12/3
f 5/13/4 6/14/4 42/15/4 41/16/4
f 3/17/5 28/18/5 25/19/5 23/20/5 27/21/5 46/22/5
f 8/23/6 20/24/6 18/25/6 39/26/6 43/27/6 21/28/6
f 19/29/7 18/30/7 20/31/7 48/32/7
f 43/33/8 44/34/8 45/35/8 21/36/8
f 40/37/9 39/38/9 18/30/9 19/29/9
f 15/39/10 13/40/10 16/41/10 17/42/10
f 25/43/11 24/44/11 22/45/11 23/46/11
f 11/47/12 10/48/12 9/49/12 33/50/12
f 33/51/3 9/52/3 6/53/3 5/54/3
f 23/55/13 22/56/13 26/57/13 27/58/13
f 24/44/14 25/43/14 28/59/14 35/60/14
f 32/61/15 31/62/15 10/48/15 11/47/15
f 9/63/6 10/64/6 31/65/6 29/66/6 42/67/6 6/68/6
f 37/69/6 36/70/6 16/71/6 13/72/6 12/73/6 2/74/6
f 47/75/6 26/76/6 22/77/6 24/78/6 35/79/6 4/80/6
f 14/81/5 15/82/5 17/83/5 38/84/5 34/85/5 1/86/5
f 41/87/5 30/88/5 32/89/5 11/90/5 33/91/5 5/92/5
f 45/93/5 44/94/5 40/95/5 19/96/5 48/97/5 7/98/5
f 17/99/16 16/100/16 36/101/16 38/102/16
f 46/103/1 47/104/1 4/6/1 3/5/1
f 34/105/4 37/106/4 2/107/4 1/108/4
f 38/102/17 36/101/17 37/109/17 34/110/17
f 13/40/18 15/39/18 14/111/18 12/112/18
f 48/113/2 20/114/2 8/10/2 7/9/2
f 27/58/19 26/57/19 47/115/19 46/116/19
f 29/117/20 30/118/20 41/119/20 42/120/20
f 30/118/21 29/117/21 31/121/21 32/122/21
f 44/34/22 43/33/22 39/38/22 40/37/22
