# Blender v2.79 (sub 0) OBJ File: 'BlockF.blend'
# www.blender.org
mtllib BlockF.mtl
o F_Cylinder
v -0.001952 0.210447 -0.974768
v -0.001952 0.210447 0.982988
v 0.103271 0.182252 -0.974768
v 0.103271 0.182252 0.982988
v 0.180300 0.105223 -0.974768
v 0.180300 0.105223 0.982988
v 0.208494 0.000000 -0.974768
v 0.208494 -0.000000 0.982988
v 0.180300 -0.105223 -0.974768
v 0.180300 -0.105223 0.982988
v 0.103271 -0.182252 -0.974768
v 0.103271 -0.182252 0.982988
v -0.001952 -0.210447 -0.974768
v -0.001952 -0.210447 0.982988
v -0.107176 -0.182252 -0.974768
v -0.107176 -0.182252 0.982988
v -0.184205 -0.105223 -0.974768
v -0.184205 -0.105223 0.982988
v -0.212399 -0.000000 -0.974768
v -0.212399 -0.000000 0.982988
v -0.184205 0.105223 -0.974768
v -0.184205 0.105223 0.982988
v -0.107176 0.182252 -0.974768
v -0.107176 0.182252 0.982988
vt 0.450962 1.000000
vt 0.450962 0.500000
vt 0.549038 0.500000
vt 0.549038 1.000000
vt 0.633975 0.500000
vt 0.633975 1.000000
vt 0.683013 0.500000
vt 0.683013 1.000000
vt 0.683013 0.500000
vt 0.683013 0.000000
vt 0.732051 0.000000
vt 0.732051 0.500000
vt 0.816987 0.000000
vt 0.816987 0.500000
vt 0.915064 0.000000
vt 0.915064 0.500000
vt 1.000000 0.000000
vt 1.000000 0.500000
vt 0.683013 0.000000
vt 0.683013 0.500000
vt 0.633975 0.500000
vt 0.633975 0.000000
vt 0.549038 0.500000
vt 0.549038 0.000000
vt 0.450962 0.500000
vt 0.450962 0.000000
vt 0.049038 0.901221
vt 0.000000 0.789149
vt 0.000000 0.659739
vt 0.049038 0.547667
vt 0.133975 0.482963
vt 0.232051 0.482963
vt 0.316987 0.547668
vt 0.366025 0.659739
vt 0.366025 0.789149
vt 0.316987 0.901221
vt 0.232051 0.965926
vt 0.133975 0.965926
vt 0.366025 0.500000
vt 0.366025 0.000000
vt 0.366025 1.000000
vt 0.232051 0.000000
vt 0.316987 0.064705
vt 0.366025 0.176777
vt 0.366025 0.306186
vt 0.316987 0.418258
vt 0.232051 0.482963
vt 0.133975 0.482963
vt 0.049038 0.418258
vt 0.000000 0.306186
vt 0.000000 0.176777
vt 0.049038 0.064705
vt 0.133974 0.000000
vn 0.2588 0.9659 0.0000
vn 0.7071 0.7071 0.0000
vn 0.9659 0.2588 0.0000
vn 0.9659 -0.2588 -0.0000
vn 0.7071 -0.7071 -0.0000
vn 0.2588 -0.9659 -0.0000
vn -0.2588 -0.9659 -0.0000
vn -0.7071 -0.7071 -0.0000
vn -0.9659 -0.2588 -0.0000
vn -0.9659 0.2588 0.0000
vn -0.0000 0.0000 1.0000
vn -0.7071 0.7071 0.0000
vn -0.2588 0.9659 0.0000
vn 0.0000 0.0000 -1.0000
usemtl StemMaterial
s off
f 1/1/1 2/2/1 4/3/1 3/4/1
f 3/4/2 4/3/2 6/5/2 5/6/2
f 5/6/3 6/5/3 8/7/3 7/8/3
f 7/9/4 8/10/4 10/11/4 9/12/4
f 9/12/5 10/11/5 12/13/5 11/14/5
f 11/14/6 12/13/6 14/15/6 13/16/6
f 13/16/7 14/15/7 16/17/7 15/18/7
f 15/19/8 16/20/8 18/21/8 17/22/8
f 17/22/9 18/21/9 20/23/9 19/24/9
f 19/24/10 20/23/10 22/25/10 21/26/10
f 4/27/11 2/28/11 24/29/11 22/30/11 20/31/11 18/32/11 16/33/11 14/34/11 12/35/11 10/36/11 8/37/11 6/38/11
f 21/26/12 22/25/12 24/39/12 23/40/12
f 23/41/13 24/39/13 2/2/13 1/1/13
f 1/42/14 3/43/14 5/44/14 7/45/14 9/46/14 11/47/14 13/48/14 15/49/14 17/50/14 19/51/14 21/52/14 23/53/14
